﻿Example: 4,4:
  ┌─┬─┬─┬─┐
4 │○│○│○│○│
  ├─┼─┼─┼─┤
3 │ │ │ │ │
  ├─┼─┼─┼─┤
2 │ │ │ │ │
  ├─┼─┼─┼─┤
1 │●│●│●│●│
  └─┴─┴─┴─┘
   a b c d
Example: 5,5:
  ┌─┬─┬─┬─┬─┐
5 │○│○│○│○│○│
  ├─┼─┼─┼─┼─┤
4 │ │ │ │ │ │
  ├─┼─┼─┼─┼─┤
3 │ │ │ │ │ │
  ├─┼─┼─┼─┼─┤
2 │ │ │ │ │ │
  ├─┼─┼─┼─┼─┤
1 │●│●│●│●│●│
  └─┴─┴─┴─┴─┘
   a b c d e
